Arbeitszeiten;;;Alexander Becker;;;;May;2014;
Datum;Tag;Status;Anfang*;Pause;Ende*;Gearbeitet;Tagessoll;Differenz;Anmerkung
01.05.14;Thursday;;;;;;;;Feiertag
02.05.14;Friday;;07:55;0h 30m;13:35;5h 10m;8h 0m;-2h 50m;
03.05.14;Saturday;Wochenende;;;;;;;
04.05.14;Sunday;Wochenende;;;;;;;
05.05.14;Monday;;08:00;0h 45m;17:30;8h 45m;8h 0m;0h 45m;
06.05.14;Tuesday;;08:00;1h 0m;17:00;8h;8h 0m;0h 0m;
07.05.14;Wednesday;;07:55;1h 0m;17:10;8h 15m;8h 0m;0h 15m;
08.05.14;Thursday;;08:05;1h 0m;17:20;8h 15m;8h 0m;0h 15m;
09.05.14;Friday;;08:00;1h 0m;17:30;8h 30m;8h 0m;0h 30m;
10.05.14;Saturday;Wochenende;;;;;;;
11.05.14;Sunday;Wochenende;;;;;;;
12.05.14;Monday;;07:55;0h 45m;17:30;8h 50m;8h 0m;0h 50m;
13.05.14;Tuesday;;07:55;1h 0m;16:20;7h 25m;8h 0m;-0h 35m;
14.05.14;Wednesday;;08:00;0h 45m;16:00;7h 15m;8h 0m;-0h 45m;
15.05.14;Thursday;;08:00;1h 0m;18:30;9h 30m;8h 0m;1h 30m;
16.05.14;Friday;;08:00;0h 45m;15:35;6h 50m;8h 0m;-1h 10m;
17.05.14;Saturday;Wochenende;;;;;;;
18.05.14;Sunday;Wochenende;;;;;;;
19.05.14;Monday;;08:00;1h 0m;17:30;8h 30m;8h 0m;0h 30m;
20.05.14;Tuesday;;08:00;0h 45m;16:45;8h;8h 0m;0h 0m;
21.05.14;Wednesday;;08:10;1h 0m;17:00;7h 50m;8h 0m;-0h 10m;
22.05.14;Thursday;;07:50;1h 0m;17:55;9h 5m;8h 0m;1h 5m;
23.05.14;Friday;;08:00;0h 45m;16:05;7h 20m;8h 0m;-0h 40m;
24.05.14;Saturday;Wochenende;;;;;;;
25.05.14;Sunday;Wochenende;;;;;;;
26.05.14;Monday;;08:05;1h 0m;17:00;7h 55m;8h 0m;-0h 5m;
27.05.14;Tuesday;;08:00;0h 45m;17:15;8h 30m;8h 0m;0h 30m;
28.05.14;Wednesday;;08:30;1h 0m;17:10;7h 40m;8h 0m;-0h 20m;
29.05.14;Thursday;;;;;;;;Feiertag
30.05.14;Friday;;08:05;1h 0m;17:10;8h 5m;8h 0m;0h 5m;
31.05.14;Saturday;Wochenende;;;;;;;
Überstunden Gesamt:;;;1h 15m;Monatssummen: ;;159h 40m;160h 0m;-0h 20m;